[
  {
    "id": "5709039f95b47b241b6479ea",
    "name": "AT&T",
    "image": "/containers/carriers/download/at&t.jpg",
    "products": ["5709e5ea92d0b17c176d43aj", "5709e5ea92d0b17c176d43ai", "5709e5ea92d0b17c176d43an", "5709e5ea92d0b17c176d43ah"]
  },
  {
    "id": "5709039f95b47b241b6479eb",
    "name": "Cellular South",
    "image": "/containers/carriers/download/cellular-south.png",
    "products": ["5709e5ea92d0b17c176d43ab", "5709e5ea92d0b17c176d43al", "5709e5ea92d0b17c176d43af", "5709e5ea92d0b17c176d43ap", "5709e5ea92d0b17c176d43as"]
  },
  {
    "id": "5709039f95b47b241b6479ec",
    "name": "T-Mobile",
    "image": "/containers/carriers/download/t-mobile.png",
    "products": ["5709e5ea92d0b17c176d43ag", "5709e5ea92d0b17c176d43au", "5709e5ea92d0b17c176d43ar"]
  },
  {
    "id": "5709039f95b47b241b6479ed",
    "name": "Dell",
    "image": "/containers/carriers/download/dell.png",
    "products": ["5709e5ea92d0b17c176d43ac"]
  },
  {
    "id": "5709039f95b47b241b6479ee",
    "name": "Best Buy",
    "image": "/containers/carriers/download/best-buy.png",
    "products": ["5709e5ea92d0b17c176d43ak", "5709e5ea92d0b17c176d43am"]
  },
  {
    "id": "5709039f95b47b241b6479ef",
    "name": "Verizon",
    "image": "/containers/carriers/download/verizon.png",
    "products": ["5709e5ea92d0b17c176d43ad", "5709e5ea92d0b17c176d43ae"]
  },
  {
    "id": "5709039f95b47b241b6479ei",
    "name": "US Cellular",
    "image": "/containers/carriers/download/us-cellular.jpg",
    "products": ["5709e5ea92d0b17c176d43ao", "5709e5ea92d0b17c176d43aw", "5709e5ea92d0b17c176d43aq"]
  }
]
