[
  {
    "id": "5709039f95b47b241b6466aa",
    "name": "Phones",
    "image": "/containers/categories/download/phones.jpg",
    "description": "Phones from around the world in a wide range",
    "products": ["5709e5ea92d0b17c176d43ab", "5709e5ea92d0b17c176d43ac", "5709e5ea92d0b17c176d43ad", "5709e5ea92d0b17c176d43ae", "5709e5ea92d0b17c176d43af", "5709e5ea92d0b17c176d43an", "5709e5ea92d0b17c176d43ah", "5709e5ea92d0b17c176d43am", "5709e5ea92d0b17c176d43ag", "5709e5ea92d0b17c176d43ai", "5709e5ea92d0b17c176d43aj", "5709e5ea92d0b17c176d43ak", "5709e5ea92d0b17c176d43as", "5709e5ea92d0b17c176d43al", "5709e5ea92d0b17c176d43ao", "5709e5ea92d0b17c176d43ap", "5709e5ea92d0b17c176d43aq", "5709e5ea92d0b17c176d43aw", "5709e5ea92d0b17c176d43ar", "5709e5ea92d0b17c176d43au"]
  }
]
