[
  {
    "id": "5709039f95b47b241b6477ea",
    "name": "Motorola",
    "image": "/containers/manufacturers/download/motorola.png",
    "products": ["5709e5ea92d0b17c176d43aj",  "5709e5ea92d0b17c176d43ai", "5709e5ea92d0b17c176d43am", "5709e5ea92d0b17c176d43ad", "5709e5ea92d0b17c176d43ae", "5709e5ea92d0b17c176d43ah", "5709e5ea92d0b17c176d43ag", "5709e5ea92d0b17c176d43an"]
  },
  {
    "id": "5709039f95b47b241b6477eb",
    "name": "Dell",
    "image": "/containers/manufacturers/download/dell.png",
    "products": ["5709e5ea92d0b17c176d43ab", "5709e5ea92d0b17c176d43ac"]
  },
  {
    "id": "5709039f95b47b241b6477ec",
    "name": "Samsung",
    "image": "/containers/manufacturers/download/samsung.jpg",
    "products": ["5709e5ea92d0b17c176d43al", "5709e5ea92d0b17c176d43as", "5709e5ea92d0b17c176d43ap", "5709e5ea92d0b17c176d43ao", "5709e5ea92d0b17c176d43aq"]
  },
  {
    "id": "5709039f95b47b241b6477ed",
    "name": "LG",
    "image": "/containers/manufacturers/download/lg.png",
    "products": ["5709e5ea92d0b17c176d43ak", "5709e5ea92d0b17c176d43af"]
  },
  {
    "id": "5709039f95b47b241b6477ee",
    "name": "T-Mobile",
    "image": "/containers/manufacturers/download/t-mobile.png",
    "products": ["5709e5ea92d0b17c176d43au", "5709e5ea92d0b17c176d43ar"]
  },
  {
    "id": "5709039f95b47b241b6477ef",
    "name": "SANYO",
    "image": "/containers/manufacturers/download/sanyo.jpg",
    "products": ["5709e5ea92d0b17c176d43aw"]
  }
]
