{
  "name": "Carrier",
  "plural": "Carriers",
  "base": "PersistedModel",
  "idInjection": true,
  "options": {
    "validateUpsert": true
  },
  "properties": {
    "name": {
      "type": "string",
      "required": true
    },
    "image": {
      "type": "string"
    },
    "products": {
      "type": "array",
      "default": []
    },
    "createdAt": {
      "type": "number"
    },
    "modifiedAt": {
      "type": "number"
    }
  },
  "validations": [],
  "relations": {
    "getProducts": {
      "type": "hasMany",
      "model": "Product",
      "foreignKey": ""
    }
  },
  "acls": [],
  "methods": {}
}
